event_type,event_stage,p,target_rel,channels,subject,summary,assessment,image,icon,tags,sound_id,implementation notes
person_bounty,taken_end,,,news,Bounty on $targetName over,$Faction authorities report that $targetName's bounty was called in by another fleet.,The bounty is no longer on offer.,,,nomap,,
person_bounty,assassination_taken_end,,,secure_comm,Assassination bounty on $targetName over,$Faction authorities report that $targetName's assassination was carried out by another fleet.,The assassination bounty is no longer on offer.,,,nomap,,
person_bounty,assassination_payment_end,,,secure_comm,Assassination payment from $theFaction: $bountyCredits credits,The message has an encrypted attachment that contains a payment of $bountyCredits credits for taking out $targetName.,$bountyCredits credits gained.,,graphics/icons/intel/gain_credits.png,nomap,,
person_bounty,assassination_payment_share_end,,,secure_comm,Assassination payment from $theFaction: $bountyCredits credits,"The message has an encrypted attachment that contains your share of the bounty, coming to $bountyCredits credits, for taking out $targetName.",$bountyCredits credits gained.,,graphics/icons/intel/gain_credits.png,nomap,,
person_bounty,mercenary_taken_end,,,secure_comm,Hit list posting on $targetName over,$Faction bosses report that $targetName's hit was carried out by another fleet.,The hit list posting is no longer on offer.,,,nomap,,
person_bounty,mercenary_payment_end,,,secure_comm,Hit payment from $theFaction: $bountyCredits credits,The message has an encrypted attachment that contains a payment of $bountyCredits credits for taking out $targetName.,$bountyCredits credits gained.,,graphics/icons/intel/gain_credits.png,nomap,,
person_bounty,mercenary_payment_share_end,,,secure_comm,Hit payment from $theFaction: $bountyCredits credits,"The message has an encrypted attachment that contains your share of the bounty, coming to $bountyCredits credits, for taking out $targetName.",$bountyCredits credits gained.,,graphics/icons/intel/gain_credits.png,nomap,,
person_bounty,start_pirate,,,news,$bountyCredits credit bounty posted by $theFaction on $targetName,"$Faction authorities $onOrAt $market have posted a bounty for bringing $targetRank $targetName, a notorious pirate, to justice.","$bountyCredits credit reward, delivered via secure comm channel through a nearby comm relay.
Offered for $daysLeft days.
$targetDesc
Rumored to be $hideoutCrumb.",,,,,
person_bounty,start_deserter,,,news,$bountyCredits credit bounty posted by $theFaction on $targetName,"$Faction authorities $onOrAt $market have posted a bounty for bringing $targetRank $targetName, convicted of desertion, to justice.","$bountyCredits credit reward, delivered via secure comm channel through a nearby comm relay.
Offered for $daysLeft days.
$targetDesc
Rumored to be $hideoutCrumb.",,,,,
person_bounty,start_assassination,,,secure_comm,$bountyCredits credit assassination offered by $theFaction on $targetName,"$Faction authorities $onOrAt $market have sent you a bounty notice calling for the assassination of $targetName, a dangerous $targetFactionLong $targetRank.","$bountyCredits credit reward, delivered via secure comm channel through a nearby comm relay.
Offered for $daysLeft days.
$targetDesc
Rumored to be $hideoutCrumb.",,,,,
person_bounty,start_mercenary,,,secure_comm,$bountyCredits credit hit list posting by $theFaction on $targetName,"$Faction bosses $onOrAt $market have put $targetRank $targetName, a prolific bounty hunter, on the hit list.","$bountyCredits credit reward, delivered via secure comm channel through a nearby comm relay.
Offered for $daysLeft days.
$targetDesc
Rumored to be $hideoutCrumb.",,,,,
person_bounty,start_pather,,,secure_comm,$bountyCredits credit bounty posted by $theFaction on $targetName,"$Faction authorities $onOrAt $market have posted a bounty for bringing $targetRank $targetName, a Pather terrorist, to justice.","$bountyCredits credit reward, delivered via secure comm channel through a nearby comm relay.
Offered for $daysLeft days.
$targetDesc
Rumored to be $hideoutCrumb.",,,,,
person_bounty,start_cabal,,,secure_comm,$bountyCredits credit bounty posted by $theFaction on $targetName,"$Faction authorities $onOrAt $market have posted a bounty for bringing $targetRank $targetName, a Starlight terrorist, to justice.","$bountyCredits credit reward, delivered via secure comm channel through a nearby comm relay.
Offered for $daysLeft days.
$targetDesc
Rumored to be $hideoutCrumb.",,,,,
,,,,,,,,,,,,
,,,,,,,,,,,,
person_bounty,assassination_other_end,,,secure_comm,Assassination bounty on $targetName over,The report indicates that $targetName was killed in an incident unrelated to asssassination.,The assassination bounty is no longer on offer.,,,nomap,,
person_bounty,assassination_expire_end,,,secure_comm,Assassination bounty on $targetName over,$Faction authorities $onOrAt $market have withdrawn the assassination offer for $targetName.,The assassination bounty is no longer on offer.,,,nomap,,
person_bounty,mercenary_other_end,,,secure_comm,Hit list posting on $targetName over,"The report indicates that $targetName was killed ""on accident"".",The hit list posting is no longer on offer.,,,nomap,,
person_bounty,mercenary_expire_end,,,secure_comm,Hit list posting on $targetName over,$Faction bosses $onOrAt $market have withdrawn $targetName from the hit list.,The hit list posting is no longer on offer.,,,nomap,,
