{
    "TierWeights": {
        "0": 0,
        "1": 0.5,
        "2": 1,
        "3": 1.5,
        "4": 0.5
    },
    "TechWeightsWeapon": {
        "VANILLA_TECH": 1,
        "TEMPLAR": 0.5,
        "TIANDONG": 0.25
    },
    "MasterWeaponScale": 1.22,
    "TechWeightsFighter": {
        "MIDLINE": 1,
        "HIGH_TECH": 1,
        "REMNANT": 1,
        "TEMPLAR": 0.5
    },
    "MasterFighterScale": 6.25,
    "WeaponTypeWeights": {
        "BALLISTIC": 1,
        "MISSILE": 1,
        "ENERGY": 1
    },
    "FactionID": "cabal"
}