{
    "TierWeights": {
        "0": 0.5,
        "1": 1,
        "2": 1.5,
        "3": 0.75
    },
    "TechWeightsWeapon": {
        "VANILLA_TECH": 1.5,
        "CITADEL": 1,
        "IMPERIUM": 1,
        "SHADOW": 1,
        "TIANDONG": 1
    },
    "MasterWeaponScale": 0.85,
    "TechWeightsFighter": {
        "MIDLINE": 1,
        "HIGH_TECH": 1,
        "CITADEL": 1,
        "IMPERIUM": 1,
        "SHADOW": 1,
    },
    "MasterFighterScale": 1,
    "WeaponTypeWeights": {
        "BALLISTIC": 1,
        "MISSILE": 1,
        "ENERGY": 1
    },
    "FactionID": "citadeldefenders"
}