{
    "TierWeights": {
        "0": 1,
        "1": 1,
        "2": 1,
        "3": 1,
        "4": 1
    },
    "TechWeightsWeapon": {
        "VANILLA_TECH": 1.5
    },
    "MasterWeaponScale": 0.52,
    "TechWeightsFighter": {
        "LOW_TECH": 1.5,
        "MIDLINE": 1.5,
        "HIGH_TECH": 1.5,
    },
    "MasterFighterScale": 2.42,
    "WeaponTypeWeights": {
        "BALLISTIC": 1,
        "MISSILE": 1,
        "ENERGY": 1
    },
    "FactionID": "everything"
}