{
    "TierWeights": {
        "0": 0.25,
        "1": 1,
        "2": 0.25
    },
    "TechWeightsWeapon": {
        "VANILLA_TECH": 1.25,
        "IMPERIUM": 1,
        "SHADOW": 1,
        "TIANDONG": 1
    },
    "MasterWeaponScale": 1.12,
    "TechWeightsFighter": {
        "LOW_TECH": 1,
        "MIDLINE": 1,
        "IMPERIUM": 0.5,
        "SHADOW": 1,
    },
    "MasterFighterScale": 14.41,
    "WeaponTypeWeights": {
        "BALLISTIC": 1,
        "MISSILE": 1,
        "ENERGY": 0.5
    },
    "FactionID": "knights_of_ludd"
}