{
    "TierWeights": {
        "0": 0.1,
        "1": 0.5,
        "2": 1,
        "3": 1.5
    },
    "TechWeightsWeapon": {
        "VANILLA_TECH": 1,
        "SHADOW": 1,
        "TIANDONG": 1,
        "ORA": 1.75
    },
    "MasterWeaponScale": 0.71,
    "TechWeightsFighter": {
        "MIDLINE": 1,
        "HIGH_TECH": 1,
        "ORA": 1.25
    },
    "MasterFighterScale": 4.21,
    "WeaponTypeWeights": {
        "BALLISTIC": 0.1,
        "MISSILE": 1,
        "ENERGY": 1
    },
    "FactionID": "ORA"
}