{
    "TierWeights": {
        "3": 1,
        "4": 1
    },
    "TechWeightsWeapon": {
        "TEMPLAR": 1
    },
    "MasterWeaponScale": 3.66,
    "TechWeightsFighter": {
        "TEMPLAR": 1,
    },
    "MasterFighterScale": 9.37,
    "WeaponTypeWeights": {
        "BALLISTIC": 1,
        "MISSILE": 1,
        "ENERGY": 1
    },
    "FactionID": "templars"
}